<?xml version="1.0" encoding="UTF-8" standalone="no"?>
<!-- Created with Inkscape (http://www.inkscape.org/) -->

<svg
   xmlns:dc="http://purl.org/dc/elements/1.1/"
   xmlns:cc="http://creativecommons.org/ns#"
   xmlns:rdf="http://www.w3.org/1999/02/22-rdf-syntax-ns#"
   xmlns:svg="http://www.w3.org/2000/svg"
   xmlns="http://www.w3.org/2000/svg"
   xmlns:sodipodi="http://sodipodi.sourceforge.net/DTD/sodipodi-0.dtd"
   xmlns:inkscape="http://www.inkscape.org/namespaces/inkscape"
   width="1300"
   height="400"
   viewBox="0 0 343.95833 105.83334"
   version="1.1"
   id="svg8"
   inkscape:version="0.91 r13725"
   sodipodi:docname="ABC.svg">
  <defs
     id="defs2">
    <marker
       inkscape:stockid="Arrow1Lend"
       orient="auto"
       refY="0.0"
       refX="0.0"
       id="Arrow1Lend"
       style="overflow:visible;"
       inkscape:isstock="true">
      <path
         id="path4182"
         d="M 0.0,0.0 L 5.0,-5.0 L -12.5,0.0 L 5.0,5.0 L 0.0,0.0 z "
         style="fill-rule:evenodd;stroke:#000000;stroke-width:1pt;stroke-opacity:1;fill:#000000;fill-opacity:1"
         transform="scale(0.8) rotate(180) translate(12.5,0)" />
    </marker>
    <marker
       inkscape:stockid="Arrow1Lstart"
       orient="auto"
       refY="0.0"
       refX="0.0"
       id="Arrow1Lstart"
       style="overflow:visible"
       inkscape:isstock="true">
      <path
         id="path4179"
         d="M 0.0,0.0 L 5.0,-5.0 L -12.5,0.0 L 5.0,5.0 L 0.0,0.0 z "
         style="fill-rule:evenodd;stroke:#000000;stroke-width:1pt;stroke-opacity:1;fill:#000000;fill-opacity:1"
         transform="scale(0.8) translate(12.5,0)" />
    </marker>
  </defs>
  <sodipodi:namedview
     id="base"
     pagecolor="#ffffff"
     bordercolor="#666666"
     borderopacity="1.0"
     inkscape:pageopacity="0.0"
     inkscape:pageshadow="2"
     inkscape:zoom="0.98994949"
     inkscape:cx="481.37044"
     inkscape:cy="-87.89038"
     inkscape:document-units="mm"
     inkscape:current-layer="layer1"
     showgrid="false"
     units="px"
     inkscape:window-width="1920"
     inkscape:window-height="1058"
     inkscape:window-x="0"
     inkscape:window-y="0"
     inkscape:window-maximized="1" />
  <metadata
     id="metadata5">
    <rdf:RDF>
      <cc:Work
         rdf:about="">
        <dc:format>image/svg+xml</dc:format>
        <dc:type
           rdf:resource="http://purl.org/dc/dcmitype/StillImage" />
        <dc:title></dc:title>
      </cc:Work>
    </rdf:RDF>
  </metadata>
  <g
     inkscape:label="Calque 1"
     inkscape:groupmode="layer"
     id="layer1"
     transform="translate(0,-191.16665)">
    <path
       inkscape:connector-curvature="0"
       id="path819"
       style="font-style:normal;font-variant:normal;font-weight:900;font-stretch:normal;font-size:medium;line-height:125%;font-family:Montserrat;-inkscape-font-specification:'Montserrat Heavy';text-align:start;letter-spacing:0px;word-spacing:0px;text-anchor:start;fill:#000000;fill-opacity:1;stroke:none;stroke-width:0.26458323px;stroke-linecap:butt;stroke-linejoin:miter;stroke-opacity:1"
       d="m 61.600025,261.21167 2.383667,6.74237 16.821877,0 -19.409858,-47.74144 -16.208935,0 -20.159011,47.74144 16.208935,0 2.451771,-6.74237 z m -3.881972,-11.30539 -9.943296,0 5.039753,-13.96148 z" />
    <path
       inkscape:connector-curvature="0"
       id="path4139"
       style="font-style:normal;font-variant:normal;font-weight:bold;font-stretch:normal;font-size:medium;line-height:125%;font-family:Montserrat;-inkscape-font-specification:'Montserrat Bold';letter-spacing:0px;word-spacing:0px;fill:#000000;fill-opacity:1;stroke:none;stroke-width:1px;stroke-linecap:butt;stroke-linejoin:miter;stroke-opacity:1"
       d="m 109.42755,268.56006 -21.204879,0 0,-48.43859 18.848779,0 q 4.92009,0 8.45423,1.17805 3.60344,1.17805 5.40517,3.18766 3.25695,3.74204 3.25695,8.45423 0,5.68235 -3.67274,8.45423 -1.24734,0.97016 -1.73242,1.24735 -0.48508,0.20789 -1.73242,0.76226 4.5043,0.97016 7.13758,4.08853 2.70259,3.04906 2.70259,7.62266 0,5.05868 -3.46485,8.93931 -4.01923,4.50431 -13.99799,4.50431 z M 99.033,239.73251 l 5.12798,0 q 4.5043,0 6.65251,-0.97015 2.2175,-0.97016 2.2175,-4.15782 0,-3.25696 -2.00961,-4.29642 -2.00961,-1.03945 -6.79111,-1.03945 l -5.19727,0 0,10.46384 z m 0,19.68035 7.41478,0 q 4.64289,0 6.9297,-1.10875 2.35609,-1.17805 2.35609,-4.50431 0,-3.39555 -2.49469,-4.43501 -2.42539,-1.10875 -7.83056,-1.10875 l -6.37532,0 0,11.15682 z" />
    <path
       inkscape:connector-curvature="0"
       id="path4141"
       style="font-style:normal;font-variant:normal;font-weight:bold;font-stretch:normal;font-size:medium;line-height:125%;font-family:Montserrat;-inkscape-font-specification:'Montserrat Bold';letter-spacing:0px;word-spacing:0px;fill:#000000;fill-opacity:1;stroke:none;stroke-width:1px;stroke-linecap:butt;stroke-linejoin:miter;stroke-opacity:1"
       d="m 158.24402,258.99708 q 7.96915,0 13.02783,-6.30603 l 6.9297,7.13759 q -8.24634,9.28579 -19.47245,9.28579 -11.15681,0 -18.433,-7.06829 -7.20688,-7.06829 -7.20688,-17.80932 0,-10.81033 7.34548,-18.01722 7.41477,-7.20688 18.08651,-7.20688 11.91908,0 19.95753,9.0779 l -6.72181,7.62267 q -5.12797,-6.37532 -12.75064,-6.37532 -6.09814,0 -10.46385,4.01922 -4.29641,3.94993 -4.29641,10.74103 0,6.72181 4.08852,10.81033 4.08852,4.08853 9.90947,4.08853 z" />
    <path
       inkscape:connector-curvature="0"
       id="path4143"
       style="font-style:normal;font-variant:normal;font-weight:bold;font-stretch:normal;font-size:medium;line-height:125%;font-family:Montserrat;-inkscape-font-specification:'Montserrat Bold';letter-spacing:0px;word-spacing:0px;fill:#000000;fill-opacity:1;stroke:none;stroke-width:1px;stroke-linecap:butt;stroke-linejoin:miter;stroke-opacity:1"
       d="m 203.87067,220.12147 q 12.95854,0 19.88824,6.37532 6.92969,6.30603 6.92969,17.60143 0,11.29541 -6.7911,17.87863 -6.72181,6.58321 -20.5812,6.58321 l -16.56198,0 0,-48.43859 17.11635,0 z m 0.55438,38.87561 q 7.41477,0 11.3647,-3.74204 4.01923,-3.74204 4.01923,-10.87963 0,-7.13759 -4.01923,-10.94892 -3.94993,-3.88063 -12.19627,-3.88063 l -6.02883,0 0,29.45122 6.8604,0 z" />
    <path
       inkscape:connector-curvature="0"
       id="path4145"
       style="font-style:normal;font-variant:normal;font-weight:bold;font-stretch:normal;font-size:medium;line-height:125%;font-family:Montserrat;-inkscape-font-specification:'Montserrat Bold';letter-spacing:0px;word-spacing:0px;fill:#000000;fill-opacity:1;stroke:none;stroke-width:1px;stroke-linecap:butt;stroke-linejoin:miter;stroke-opacity:1"
       d="m 275.0062,220.12147 0,9.63228 -24.11535,0 0,9.97876 21.68995,0 0,9.2165 -21.68995,0 0,10.04807 24.87762,0 0,9.56298 -35.68795,0 0,-48.43859 34.92568,0 z" />
    <path
       inkscape:connector-curvature="0"
       id="path4147"
       style="font-style:normal;font-variant:normal;font-weight:bold;font-stretch:normal;font-size:medium;line-height:125%;font-family:Montserrat;-inkscape-font-specification:'Montserrat Bold';letter-spacing:0px;word-spacing:0px;fill:#000000;fill-opacity:1;stroke:none;stroke-width:1px;stroke-linecap:butt;stroke-linejoin:miter;stroke-opacity:1"
       d="m 318.68386,220.12147 0,9.49368 -22.45222,0 0,10.46385 21.34347,0 0,9.49369 -21.34347,0 0,18.98737 -10.81033,0 0,-48.43859 33.26255,0 z" />
  </g>
</svg>
